info face="Roboto Medium" size=20 bold=0 italic=0 charset="" unicode=0 stretchH=100 smooth=1 aa=1 padding=1,1,1,1 spacing=-1,-1
common lineHeight=28 base=21 scaleW=256 scaleH=128 pages=1 packed=0
page id=0 file="font20.png"
chars count=103
char id=32   x=0     y=0     width=0     height=0     xoffset=0     yoffset=21    xadvance=6     page=0  chnl=0 
char id=106   x=0     y=0     width=8     height=24     xoffset=-2     yoffset=3    xadvance=6     page=0  chnl=0 
char id=125   x=8     y=0     width=10     height=23     xoffset=-1     yoffset=4    xadvance=8     page=0  chnl=0 
char id=123   x=18     y=0     width=10     height=23     xoffset=-1     yoffset=4    xadvance=8     page=0  chnl=0 
char id=93   x=28     y=0     width=8     height=23     xoffset=-1     yoffset=3    xadvance=6     page=0  chnl=0 
char id=91   x=36     y=0     width=8     height=23     xoffset=0     yoffset=3    xadvance=6     page=0  chnl=0 
char id=41   x=44     y=0     width=9     height=23     xoffset=-1     yoffset=4    xadvance=8     page=0  chnl=0 
char id=40   x=53     y=0     width=9     height=23     xoffset=0     yoffset=4    xadvance=8     page=0  chnl=0 
char id=36   x=62     y=0     width=13     height=22     xoffset=0     yoffset=3    xadvance=12     page=0  chnl=0 
char id=64   x=75     y=0     width=20     height=21     xoffset=-1     yoffset=6    xadvance=19     page=0  chnl=0 
char id=124   x=95     y=0     width=6     height=21     xoffset=0     yoffset=5    xadvance=6     page=0  chnl=0 
char id=220   x=101     y=0     width=15     height=21     xoffset=0     yoffset=2    xadvance=15     page=0  chnl=0 
char id=196   x=116     y=0     width=16     height=21     xoffset=-1     yoffset=2    xadvance=14     page=0  chnl=0 
char id=214   x=132     y=0     width=15     height=21     xoffset=0     yoffset=2    xadvance=15     page=0  chnl=0 
char id=105   x=147     y=0     width=6     height=20     xoffset=0     yoffset=3    xadvance=6     page=0  chnl=0 
char id=81   x=153     y=0     width=16     height=20     xoffset=0     yoffset=5    xadvance=15     page=0  chnl=0 
char id=92   x=169     y=0     width=12     height=19     xoffset=-1     yoffset=5    xadvance=9     page=0  chnl=0 
char id=47   x=181     y=0     width=11     height=19     xoffset=-1     yoffset=5    xadvance=9     page=0  chnl=0 
char id=59   x=192     y=0     width=7     height=19     xoffset=0     yoffset=8    xadvance=6     page=0  chnl=0 
char id=121   x=199     y=0     width=13     height=19     xoffset=-1     yoffset=8    xadvance=11     page=0  chnl=0 
char id=113   x=212     y=0     width=13     height=19     xoffset=-1     yoffset=8    xadvance=12     page=0  chnl=0 
char id=112   x=225     y=0     width=13     height=19     xoffset=0     yoffset=8    xadvance=12     page=0  chnl=0 
char id=108   x=238     y=0     width=6     height=19     xoffset=0     yoffset=4    xadvance=6     page=0  chnl=0 
char id=107   x=0     y=24     width=13     height=19     xoffset=0     yoffset=4    xadvance=11     page=0  chnl=0 
char id=104   x=13     y=24     width=13     height=19     xoffset=0     yoffset=4    xadvance=12     page=0  chnl=0 
char id=103   x=26     y=24     width=14     height=19     xoffset=-1     yoffset=8    xadvance=12     page=0  chnl=0 
char id=102   x=40     y=24     width=11     height=19     xoffset=-1     yoffset=4    xadvance=8     page=0  chnl=0 
char id=100   x=51     y=24     width=14     height=19     xoffset=-1     yoffset=4    xadvance=12     page=0  chnl=0 
char id=98   x=65     y=24     width=13     height=19     xoffset=0     yoffset=4    xadvance=12     page=0  chnl=0 
char id=223   x=78     y=24     width=14     height=19     xoffset=0     yoffset=4    xadvance=13     page=0  chnl=0 
char id=225   x=92     y=24     width=13     height=19     xoffset=-1     yoffset=4    xadvance=12     page=0  chnl=0 
char id=226   x=105     y=24     width=13     height=19     xoffset=-1     yoffset=4    xadvance=12     page=0  chnl=0 
char id=38   x=118     y=24     width=16     height=18     xoffset=-1     yoffset=5    xadvance=14     page=0  chnl=0 
char id=35   x=134     y=24     width=15     height=18     xoffset=-1     yoffset=5    xadvance=13     page=0  chnl=0 
char id=63   x=149     y=24     width=13     height=18     xoffset=-1     yoffset=5    xadvance=11     page=0  chnl=0 
char id=33   x=162     y=24     width=6     height=18     xoffset=0     yoffset=5    xadvance=6     page=0  chnl=0 
char id=57   x=168     y=24     width=14     height=18     xoffset=-1     yoffset=5    xadvance=12     page=0  chnl=0 
char id=55   x=182     y=24     width=14     height=18     xoffset=-1     yoffset=5    xadvance=12     page=0  chnl=0 
char id=54   x=196     y=24     width=13     height=18     xoffset=0     yoffset=5    xadvance=12     page=0  chnl=0 
char id=53   x=209     y=24     width=13     height=18     xoffset=0     yoffset=5    xadvance=12     page=0  chnl=0 
char id=52   x=222     y=24     width=14     height=18     xoffset=-1     yoffset=5    xadvance=12     page=0  chnl=0 
char id=51   x=236     y=24     width=14     height=18     xoffset=-1     yoffset=5    xadvance=12     page=0  chnl=0 
char id=50   x=0     y=43     width=14     height=18     xoffset=-1     yoffset=5    xadvance=12     page=0  chnl=0 
char id=90   x=14     y=43     width=15     height=18     xoffset=-1     yoffset=5    xadvance=13     page=0  chnl=0 
char id=89   x=29     y=43     width=16     height=18     xoffset=-1     yoffset=5    xadvance=13     page=0  chnl=0 
char id=88   x=45     y=43     width=16     height=18     xoffset=-1     yoffset=5    xadvance=14     page=0  chnl=0 
char id=87   x=61     y=43     width=21     height=18     xoffset=-1     yoffset=5    xadvance=19     page=0  chnl=0 
char id=86   x=82     y=43     width=16     height=18     xoffset=-1     yoffset=5    xadvance=14     page=0  chnl=0 
char id=85   x=98     y=43     width=15     height=18     xoffset=0     yoffset=5    xadvance=15     page=0  chnl=0 
char id=84   x=113     y=43     width=15     height=18     xoffset=-1     yoffset=5    xadvance=13     page=0  chnl=0 
char id=83   x=128     y=43     width=15     height=18     xoffset=-1     yoffset=5    xadvance=14     page=0  chnl=0 
char id=82   x=143     y=43     width=15     height=18     xoffset=0     yoffset=5    xadvance=14     page=0  chnl=0 
char id=80   x=158     y=43     width=15     height=18     xoffset=0     yoffset=5    xadvance=14     page=0  chnl=0 
char id=79   x=173     y=43     width=15     height=18     xoffset=0     yoffset=5    xadvance=15     page=0  chnl=0 
char id=78   x=188     y=43     width=15     height=18     xoffset=0     yoffset=5    xadvance=15     page=0  chnl=0 
char id=77   x=203     y=43     width=18     height=18     xoffset=0     yoffset=5    xadvance=19     page=0  chnl=0 
char id=76   x=221     y=43     width=13     height=18     xoffset=0     yoffset=5    xadvance=12     page=0  chnl=0 
char id=75   x=234     y=43     width=15     height=18     xoffset=0     yoffset=5    xadvance=14     page=0  chnl=0 
char id=74   x=0     y=61     width=13     height=18     xoffset=-1     yoffset=5    xadvance=12     page=0  chnl=0 
char id=73   x=13     y=61     width=7     height=18     xoffset=0     yoffset=5    xadvance=7     page=0  chnl=0 
char id=72   x=20     y=61     width=15     height=18     xoffset=0     yoffset=5    xadvance=15     page=0  chnl=0 
char id=71   x=35     y=61     width=15     height=18     xoffset=0     yoffset=5    xadvance=15     page=0  chnl=0 
char id=70   x=50     y=61     width=14     height=18     xoffset=0     yoffset=5    xadvance=13     page=0  chnl=0 
char id=69   x=64     y=61     width=14     height=18     xoffset=0     yoffset=5    xadvance=13     page=0  chnl=0 
char id=68   x=78     y=61     width=15     height=18     xoffset=0     yoffset=5    xadvance=14     page=0  chnl=0 
char id=67   x=93     y=61     width=14     height=18     xoffset=0     yoffset=5    xadvance=14     page=0  chnl=0 
char id=66   x=107     y=61     width=14     height=18     xoffset=0     yoffset=5    xadvance=14     page=0  chnl=0 
char id=65   x=121     y=61     width=16     height=18     xoffset=-1     yoffset=5    xadvance=14     page=0  chnl=0 
char id=252   x=137     y=61     width=13     height=18     xoffset=0     yoffset=5    xadvance=12     page=0  chnl=0 
char id=228   x=150     y=61     width=13     height=18     xoffset=-1     yoffset=5    xadvance=12     page=0  chnl=0 
char id=246   x=163     y=61     width=14     height=18     xoffset=-1     yoffset=5    xadvance=12     page=0  chnl=0 
char id=37   x=177     y=61     width=17     height=17     xoffset=-1     yoffset=6    xadvance=16     page=0  chnl=0 
char id=48   x=194     y=61     width=13     height=17     xoffset=0     yoffset=6    xadvance=12     page=0  chnl=0 
char id=56   x=207     y=61     width=14     height=17     xoffset=-1     yoffset=6    xadvance=12     page=0  chnl=0 
char id=49   x=221     y=61     width=10     height=17     xoffset=0     yoffset=6    xadvance=12     page=0  chnl=0 
char id=116   x=231     y=61     width=10     height=17     xoffset=-1     yoffset=6    xadvance=8     page=0  chnl=0 
char id=58   x=241     y=61     width=6     height=15     xoffset=0     yoffset=8    xadvance=6     page=0  chnl=0 
char id=122   x=0     y=79     width=13     height=15     xoffset=-1     yoffset=8    xadvance=11     page=0  chnl=0 
char id=120   x=13     y=79     width=13     height=15     xoffset=-1     yoffset=8    xadvance=11     page=0  chnl=0 
char id=119   x=26     y=79     width=18     height=15     xoffset=-1     yoffset=8    xadvance=16     page=0  chnl=0 
char id=118   x=44     y=79     width=13     height=15     xoffset=-1     yoffset=8    xadvance=11     page=0  chnl=0 
char id=117   x=57     y=79     width=13     height=15     xoffset=0     yoffset=8    xadvance=12     page=0  chnl=0 
char id=115   x=70     y=79     width=13     height=15     xoffset=-1     yoffset=8    xadvance=11     page=0  chnl=0 
char id=114   x=83     y=79     width=9     height=15     xoffset=0     yoffset=8    xadvance=8     page=0  chnl=0 
char id=110   x=92     y=79     width=13     height=15     xoffset=0     yoffset=8    xadvance=12     page=0  chnl=0 
char id=109   x=105     y=79     width=19     height=15     xoffset=0     yoffset=8    xadvance=18     page=0  chnl=0 
char id=101   x=124     y=79     width=13     height=15     xoffset=-1     yoffset=8    xadvance=12     page=0  chnl=0 
char id=99   x=137     y=79     width=13     height=15     xoffset=-1     yoffset=8    xadvance=12     page=0  chnl=0 
char id=97   x=150     y=79     width=13     height=15     xoffset=-1     yoffset=8    xadvance=12     page=0  chnl=0 
char id=43   x=163     y=79     width=14     height=14     xoffset=-1     yoffset=8    xadvance=12     page=0  chnl=0 
char id=111   x=177     y=79     width=14     height=14     xoffset=-1     yoffset=9    xadvance=12     page=0  chnl=0 
char id=62   x=191     y=79     width=12     height=13     xoffset=0     yoffset=9    xadvance=11     page=0  chnl=0 
char id=60   x=203     y=79     width=12     height=13     xoffset=-1     yoffset=9    xadvance=11     page=0  chnl=0 
char id=42   x=215     y=79     width=12     height=12     xoffset=-1     yoffset=5    xadvance=10     page=0  chnl=0 
char id=94   x=227     y=79     width=11     height=12     xoffset=-1     yoffset=5    xadvance=10     page=0  chnl=0 
char id=61   x=238     y=79     width=12     height=10     xoffset=0     yoffset=9    xadvance=12     page=0  chnl=0 
char id=44   x=0     y=94     width=7     height=10     xoffset=-1     yoffset=17    xadvance=6     page=0  chnl=0 
char id=39   x=7     y=94     width=6     height=9     xoffset=-1     yoffset=4    xadvance=4     page=0  chnl=0 
char id=34   x=13     y=94     width=9     height=9     xoffset=-1     yoffset=4    xadvance=7     page=0  chnl=0 
char id=126   x=22     y=94     width=15     height=8     xoffset=0     yoffset=11    xadvance=14     page=0  chnl=0 
char id=96   x=37     y=94     width=9     height=7     xoffset=-1     yoffset=4    xadvance=7     page=0  chnl=0 
char id=95   x=46     y=94     width=12     height=6     xoffset=-1     yoffset=19    xadvance=10     page=0  chnl=0 
char id=45   x=58     y=94     width=9     height=6     xoffset=-1     yoffset=12    xadvance=8     page=0  chnl=0 
char id=46   x=67     y=94     width=6     height=6     xoffset=0     yoffset=17    xadvance=7     page=0  chnl=0 
kernings count=-1
